,slice feature,slice value,train size,test size,attack type,Attacker advantage,AUC
0,Entire dataset,,24421,24421,THRESHOLD_ATTACK,0.1677654477703616,0.5842089207569776
1,Entire dataset,,24421,24421,RANDOM_FOREST,0.16625767595305754,0.6007427342180045
2,Entire dataset,,24421,24421,K_NEAREST_NEIGHBORS,0.16887853222605925,0.6057237373156141
3,class,0,18595,18560,THRESHOLD_ATTACK,0.1167404132785046,0.5585005948600383
4,class,0,18560,18560,RANDOM_FOREST,0.11142241379310344,0.5562658386593341
5,class,0,18560,18560,K_NEAREST_NEIGHBORS,0.11508620689655172,0.5541191429473842
6,class,1,5826,5861,THRESHOLD_ATTACK,0.33369967000121187,0.670584498075422
7,class,1,5826,5826,RANDOM_FOREST,0.3337949798999902,0.6629208557400047
8,class,1,5826,5826,K_NEAREST_NEIGHBORS,0.3276344023169692,0.6685046893737696
9,correctly_classified,True,23899,19892,THRESHOLD_ATTACK,0.0025876142736112467,0.5004376629741859
10,correctly_classified,True,19892,19892,RANDOM_FOREST,0.04986929418861852,0.5221823222437156
11,correctly_classified,True,19892,19892,K_NEAREST_NEIGHBORS,0.001608686909310264,0.5007061862187726
12,correctly_classified,False,522,4529,THRESHOLD_ATTACK,0.9004195186575403,0.9548573306634385
13,correctly_classified,False,522,522,RANDOM_FOREST,0.9236641221374046,0.9700822078684673
14,correctly_classified,False,522,522,K_NEAREST_NEIGHBORS,0.8692307692307693,0.936758661186142
