,slice feature,slice value,train size,test size,attack type,Attacker advantage,AUC
0,Entire dataset,,24665,24666,THRESHOLD_ATTACK,0.8104271526955488,0.879928255028638
1,Entire dataset,,24665,24665,RANDOM_FOREST,0.8125498314009659,0.9503501077507484
2,Entire dataset,,24665,24665,K_NEAREST_NEIGHBORS,0.7877088829503356,0.9401210975034214
3,class,0,177,185,THRESHOLD_ATTACK,0.7400519163231027,0.818262330126737
4,class,0,177,177,RANDOM_FOREST,0.8888888888888888,0.9797979797979798
5,class,0,177,177,K_NEAREST_NEIGHBORS,0.7777777777777778,0.8848484848484849
6,class,1,101,106,THRESHOLD_ATTACK,0.7353820287689146,0.8599383523257986
7,class,1,101,101,RANDOM_FOREST,0.8076923076923077,0.9523076923076923
8,class,1,101,101,K_NEAREST_NEIGHBORS,0.68,0.8876923076923078
9,class,2,593,574,THRESHOLD_ATTACK,0.7079310891880299,0.8188990604673574
10,class,2,574,574,RANDOM_FOREST,0.6873543123543124,0.8972416472416473
11,class,2,574,574,K_NEAREST_NEIGHBORS,0.6527292152292152,0.882697163947164
12,class,3,163,129,THRESHOLD_ATTACK,0.5581395348837209,0.6831217006705663
13,class,3,129,129,RANDOM_FOREST,0.48484848484848486,0.7864583333333333
14,class,3,129,129,K_NEAREST_NEIGHBORS,0.6060606060606061,0.8390151515151515
15,class,4,338,306,THRESHOLD_ATTACK,0.7617473024712843,0.844181459566075
16,class,4,306,306,RANDOM_FOREST,0.7763157894736842,0.9107997265892004
17,class,4,306,306,K_NEAREST_NEIGHBORS,0.7271018455228981,0.9213089542036911
18,class,5,212,205,THRESHOLD_ATTACK,0.6536585365853659,0.7708812701334561
19,class,5,205,205,RANDOM_FOREST,0.7462292609351433,0.9144042232277526
20,class,5,205,205,K_NEAREST_NEIGHBORS,0.6078431372549019,0.8493589743589742
21,class,6,291,321,THRESHOLD_ATTACK,0.8093265247133635,0.8720760938219267
22,class,6,291,291,RANDOM_FOREST,0.7945205479452055,0.9312253706136235
23,class,6,291,291,K_NEAREST_NEIGHBORS,0.8493150684931506,0.9132107337211484
24,class,7,212,238,THRESHOLD_ATTACK,0.7563025210084033,0.8414460123672111
25,class,7,212,212,RANDOM_FOREST,0.7924528301886793,0.9540761836952653
26,class,7,212,212,K_NEAREST_NEIGHBORS,0.7735849056603774,0.893556425774297
27,class,8,192,217,THRESHOLD_ATTACK,0.8709677419354839,0.9179867511520738
28,class,8,192,192,RANDOM_FOREST,0.8541666666666666,0.9817708333333334
29,class,8,192,192,K_NEAREST_NEIGHBORS,0.8958333333333334,0.9661458333333335
30,class,9,224,245,THRESHOLD_ATTACK,0.8530612244897959,0.9073797376093296
31,class,9,224,224,RANDOM_FOREST,0.875,0.9760841836734693
32,class,9,224,224,K_NEAREST_NEIGHBORS,0.875,0.9626913265306123
33,class,10,365,423,THRESHOLD_ATTACK,0.8250591016548463,0.8870462126364196
34,class,10,365,365,RANDOM_FOREST,0.8259675107501195,0.9409340659340659
35,class,10,365,365,K_NEAREST_NEIGHBORS,0.8131868131868132,0.9270783564261824
36,class,11,236,220,THRESHOLD_ATTACK,0.8681818181818182,0.9078293528505393
37,class,11,220,220,RANDOM_FOREST,0.8545454545454545,0.9709090909090908
38,class,11,220,220,K_NEAREST_NEIGHBORS,0.7818181818181819,0.8801652892561983
39,class,12,270,263,THRESHOLD_ATTACK,0.6920152091254753,0.7987184903534714
40,class,12,263,263,RANDOM_FOREST,0.6363636363636364,0.8783287419651056
41,class,12,263,263,K_NEAREST_NEIGHBORS,0.6515151515151515,0.907139577594123
42,class,13,269,259,THRESHOLD_ATTACK,0.8302593618578749,0.8929755565443299
43,class,13,259,259,RANDOM_FOREST,0.8307692307692308,0.9210650887573966
44,class,13,259,259,K_NEAREST_NEIGHBORS,0.8307692307692308,0.9293491124260356
45,class,14,287,312,THRESHOLD_ATTACK,0.7969601536674707,0.8626541141785045
46,class,14,287,287,RANDOM_FOREST,0.7916666666666666,0.9408757716049383
47,class,14,287,287,K_NEAREST_NEIGHBORS,0.7638888888888888,0.8860918209876544
48,class,15,558,586,THRESHOLD_ATTACK,0.7284976818721176,0.8369588486427637
49,class,15,558,558,RANDOM_FOREST,0.7841726618705036,0.9024665981500515
50,class,15,558,558,K_NEAREST_NEIGHBORS,0.7357142857142858,0.9150308324768757
51,class,16,371,366,THRESHOLD_ATTACK,0.8524958390408436,0.9070449089007704
52,class,16,366,366,RANDOM_FOREST,0.8695652173913043,0.9521619684663163
53,class,16,366,366,K_NEAREST_NEIGHBORS,0.8478260869565217,0.9462494027711419
54,class,17,273,281,THRESHOLD_ATTACK,0.8505338078291815,0.9020179109147082
55,class,17,273,273,RANDOM_FOREST,0.9117647058823529,0.9865728900255755
56,class,17,273,273,K_NEAREST_NEIGHBORS,0.8107416879795396,0.9468243819266837
57,class,18,646,648,THRESHOLD_ATTACK,0.6851135190918473,0.8039024576692275
58,class,18,646,646,RANDOM_FOREST,0.6604171459243923,0.8803197607545433
59,class,18,646,646,K_NEAREST_NEIGHBORS,0.6480331262939958,0.8604593206042482
60,class,19,253,264,THRESHOLD_ATTACK,0.6205533596837944,0.7381123487842856
61,class,19,253,253,RANDOM_FOREST,0.683531746031746,0.9185267857142858
62,class,19,253,253,K_NEAREST_NEIGHBORS,0.609375,0.8531746031746031
63,class,20,284,269,THRESHOLD_ATTACK,0.8550185873605948,0.9114613330540866
64,class,20,269,269,RANDOM_FOREST,0.7611940298507462,0.8977172958735733
65,class,20,269,269,K_NEAREST_NEIGHBORS,0.7910447761194029,0.9036435469710272
66,class,21,276,315,THRESHOLD_ATTACK,0.9015873015873016,0.945180584311019
67,class,21,276,276,RANDOM_FOREST,0.9130434782608695,0.9578869985297207
68,class,21,276,276,K_NEAREST_NEIGHBORS,0.855072463768116,0.9413988657844992
69,class,22,461,517,THRESHOLD_ATTACK,0.7531772238469058,0.8481184205557676
70,class,22,461,461,RANDOM_FOREST,0.7930284857571215,0.937706146926537
71,class,22,461,461,K_NEAREST_NEIGHBORS,0.7913043478260869,0.9018740629685157
72,class,23,143,139,THRESHOLD_ATTACK,0.9280575539568345,0.9576394828193389
73,class,23,139,139,RANDOM_FOREST,0.9714285714285714,0.9857142857142857
74,class,23,139,139,K_NEAREST_NEIGHBORS,0.8857142857142857,0.9697959183673469
75,class,24,403,440,THRESHOLD_ATTACK,0.8285021430182721,0.8925727498308145
76,class,24,403,403,RANDOM_FOREST,0.8613861386138614,0.9483383981962552
77,class,24,403,403,K_NEAREST_NEIGHBORS,0.801980198019802,0.9375061268503087
78,class,25,61,59,THRESHOLD_ATTACK,0.9491525423728814,0.9677688246735203
79,class,25,59,59,RANDOM_FOREST,0.9333333333333333,0.9688888888888889
80,class,25,59,59,K_NEAREST_NEIGHBORS,0.8666666666666667,0.9911111111111112
81,class,26,571,573,THRESHOLD_ATTACK,0.7608769404278339,0.8454565182176336
82,class,26,571,571,RANDOM_FOREST,0.7692307692307692,0.9505354785075063
83,class,26,571,571,K_NEAREST_NEIGHBORS,0.7622377622377623,0.9112181524768938
84,class,27,213,221,THRESHOLD_ATTACK,0.8642533936651584,0.9327427612431755
85,class,27,213,213,RANDOM_FOREST,0.9444444444444444,0.975017470300489
86,class,27,213,213,K_NEAREST_NEIGHBORS,0.8305380852550664,0.930293501048218
87,class,28,223,226,THRESHOLD_ATTACK,0.9335687924123973,0.9535100599230129
88,class,28,223,223,RANDOM_FOREST,0.9464285714285714,0.9803890306122448
89,class,28,223,223,K_NEAREST_NEIGHBORS,0.9107142857142857,0.9625318877551021
90,class,29,12,16,THRESHOLD_ATTACK,1.0,1.0
91,class,29,12,12,RANDOM_FOREST,1.0,1.0
92,class,29,12,12,K_NEAREST_NEIGHBORS,1.0,1.0
93,class,30,457,456,THRESHOLD_ATTACK,0.7697656339974663,0.8565779876386809
94,class,30,456,456,RANDOM_FOREST,0.8245614035087719,0.9422899353647276
95,class,30,456,456,K_NEAREST_NEIGHBORS,0.7631578947368421,0.8915820252385349
96,class,31,161,179,THRESHOLD_ATTACK,0.7194212151705471,0.834033103161109
97,class,31,161,161,RANDOM_FOREST,0.775,0.9228658536585366
98,class,31,161,161,K_NEAREST_NEIGHBORS,0.675,0.8890243902439025
99,class,32,251,230,THRESHOLD_ATTACK,0.8587043131820544,0.9244413649748829
100,class,32,230,230,RANDOM_FOREST,0.9137931034482759,0.9624924379915305
101,class,32,230,230,K_NEAREST_NEIGHBORS,0.8953418027828192,0.9706594071385359
102,class,33,301,301,THRESHOLD_ATTACK,0.867109634551495,0.9184225339676163
103,class,33,301,301,RANDOM_FOREST,0.8138596491228071,0.93
104,class,33,301,301,K_NEAREST_NEIGHBORS,0.7480701754385966,0.8768421052631579
105,class,34,197,199,THRESHOLD_ATTACK,0.8190954773869347,0.8862969670688468
106,class,34,197,197,RANDOM_FOREST,0.8979591836734694,0.9685714285714284
107,class,34,197,197,K_NEAREST_NEIGHBORS,0.7959183673469388,0.9183673469387754
108,class,35,253,221,THRESHOLD_ATTACK,0.812244021962692,0.8693058859299267
109,class,35,221,221,RANDOM_FOREST,0.8363636363636363,0.9571428571428572
110,class,35,221,221,K_NEAREST_NEIGHBORS,0.75,0.9319805194805195
111,class,36,306,323,THRESHOLD_ATTACK,0.8699690402476781,0.9152755013254013
112,class,36,306,306,RANDOM_FOREST,0.8961038961038961,0.9665926179084073
113,class,36,306,306,K_NEAREST_NEIGHBORS,0.8701298701298701,0.9628332194121667
114,class,37,203,172,THRESHOLD_ATTACK,0.8698304502233933,0.9312063237484247
115,class,37,172,172,RANDOM_FOREST,0.8837209302325582,0.9659275283937263
116,class,37,172,172,K_NEAREST_NEIGHBORS,0.813953488372093,0.9194159004867497
117,class,38,296,323,THRESHOLD_ATTACK,0.8603987114049033,0.9172715672328675
118,class,38,296,296,RANDOM_FOREST,0.7837837837837838,0.8996530314097881
119,class,38,296,296,K_NEAREST_NEIGHBORS,0.8783783783783784,0.9409240321402483
120,class,39,347,373,THRESHOLD_ATTACK,0.7234588313464317,0.8161259667313085
121,class,39,347,347,RANDOM_FOREST,0.7701149425287357,0.9243625313779891
122,class,39,347,347,K_NEAREST_NEIGHBORS,0.67816091954023,0.8795085216012684
123,class,40,179,178,THRESHOLD_ATTACK,0.9157303370786517,0.9472569204695248
124,class,40,178,178,RANDOM_FOREST,0.9777777777777777,0.993939393939394
125,class,40,178,178,K_NEAREST_NEIGHBORS,0.8863636363636364,0.9583333333333333
126,class,41,304,285,THRESHOLD_ATTACK,0.8142543859649123,0.8696964450600185
127,class,41,285,285,RANDOM_FOREST,0.8028169014084507,0.943075117370892
128,class,41,285,285,K_NEAREST_NEIGHBORS,0.8599374021909233,0.9624413145539905
129,class,42,164,152,THRESHOLD_ATTACK,0.881578947368421,0.9184852374839538
130,class,42,152,152,RANDOM_FOREST,0.7631578947368421,0.9033933518005539
131,class,42,152,152,K_NEAREST_NEIGHBORS,0.894736842105263,0.9626038781163435
132,class,43,338,334,THRESHOLD_ATTACK,0.7844311377245509,0.8559021011231973
133,class,43,334,334,RANDOM_FOREST,0.8095238095238095,0.9330895008605852
134,class,43,334,334,K_NEAREST_NEIGHBORS,0.8452380952380952,0.9503729202524384
135,class,44,293,250,THRESHOLD_ATTACK,0.7731740614334471,0.8376109215017064
136,class,44,250,250,RANDOM_FOREST,0.8092677931387608,0.9695340501792115
137,class,44,250,250,K_NEAREST_NEIGHBORS,0.7096774193548387,0.909626216077829
138,class,45,153,165,THRESHOLD_ATTACK,0.8666666666666667,0.9139829669241434
139,class,45,153,153,RANDOM_FOREST,0.8421052631578947,0.9237516869095816
140,class,45,153,153,K_NEAREST_NEIGHBORS,0.8461538461538461,0.9642375168690958
141,class,46,102,107,THRESHOLD_ATTACK,0.9532710280373832,0.9756276342312625
142,class,46,102,102,RANDOM_FOREST,0.9615384615384616,0.9907692307692308
143,class,46,102,102,K_NEAREST_NEIGHBORS,0.9215384615384615,0.9784615384615385
144,class,47,271,269,THRESHOLD_ATTACK,0.9107806691449815,0.9468785580049107
145,class,47,269,269,RANDOM_FOREST,0.9402985074626866,0.9817822651448639
146,class,47,269,269,K_NEAREST_NEIGHBORS,0.9411764705882353,0.9823309920983319
147,class,48,224,270,THRESHOLD_ATTACK,0.8777777777777778,0.9232556216931218
148,class,48,224,224,RANDOM_FOREST,0.8392857142857143,0.9371811224489796
149,class,48,224,224,K_NEAREST_NEIGHBORS,0.8571428571428571,0.9464285714285714
150,class,49,377,372,THRESHOLD_ATTACK,0.8711103505319301,0.9236366618179743
151,class,49,372,372,RANDOM_FOREST,0.9032258064516129,0.9714417851774771
152,class,49,372,372,K_NEAREST_NEIGHBORS,0.8924731182795699,0.9732917100242803
153,class,50,345,328,THRESHOLD_ATTACK,0.7839872746553553,0.8505788264404384
154,class,50,328,328,RANDOM_FOREST,0.7195121951219512,0.9180547293277812
155,class,50,328,328,K_NEAREST_NEIGHBORS,0.7682926829268293,0.9209547888161809
156,class,51,301,293,THRESHOLD_ATTACK,0.6964271540825235,0.7909641354756046
157,class,51,293,293,RANDOM_FOREST,0.6756756756756757,0.9278970751573491
158,class,51,293,293,K_NEAREST_NEIGHBORS,0.564605701592003,0.8807848944835246
159,class,52,247,249,THRESHOLD_ATTACK,0.8151960066988603,0.8785831585451116
160,class,52,247,247,RANDOM_FOREST,0.7903225806451613,0.9406867845993756
161,class,52,247,247,K_NEAREST_NEIGHBORS,0.8225806451612904,0.9513527575442248
162,class,53,265,226,THRESHOLD_ATTACK,0.6946902654867256,0.7714643513107363
163,class,53,226,226,RANDOM_FOREST,0.6607142857142857,0.8994360902255639
164,class,53,226,226,K_NEAREST_NEIGHBORS,0.6469298245614035,0.8880012531328321
165,class,54,320,306,THRESHOLD_ATTACK,0.8138684640522875,0.8772569444444445
166,class,54,306,306,RANDOM_FOREST,0.8571428571428571,0.953092959671907
167,class,54,306,306,K_NEAREST_NEIGHBORS,0.8026315789473685,0.9435235816814764
168,class,55,303,272,THRESHOLD_ATTACK,0.8610463987575229,0.9260641137643176
169,class,55,272,272,RANDOM_FOREST,0.8529411764705883,0.9648572664359861
170,class,55,272,272,K_NEAREST_NEIGHBORS,0.8235294117647058,0.9530709342560554
171,class,56,219,202,THRESHOLD_ATTACK,0.777996292779963,0.8618834486188346
172,class,56,202,202,RANDOM_FOREST,0.8627450980392157,0.968627450980392
173,class,56,202,202,K_NEAREST_NEIGHBORS,0.8211764705882353,0.9574509803921569
174,class,57,382,395,THRESHOLD_ATTACK,0.8682682749022467,0.9113890913910796
175,class,57,382,382,RANDOM_FOREST,0.8631578947368421,0.9441885964912279
176,class,57,382,382,K_NEAREST_NEIGHBORS,0.9158991228070176,0.9539473684210527
177,class,58,219,205,THRESHOLD_ATTACK,0.8878048780487805,0.9294798975387015
178,class,58,205,205,RANDOM_FOREST,0.9038461538461539,0.9868024132730014
179,class,58,205,205,K_NEAREST_NEIGHBORS,0.8653846153846154,0.9562594268476621
180,class,59,213,227,THRESHOLD_ATTACK,0.8323095696055924,0.8669313974891935
181,class,59,213,213,RANDOM_FOREST,0.870020964360587,0.9631376659678546
182,class,59,213,213,K_NEAREST_NEIGHBORS,0.907058001397624,0.9510831586303283
183,class,60,370,311,THRESHOLD_ATTACK,0.8257147823064223,0.8979403841140176
184,class,60,311,311,RANDOM_FOREST,0.8461538461538461,0.9362261669953978
185,class,60,311,311,K_NEAREST_NEIGHBORS,0.8205128205128205,0.9275969756738986
186,class,61,236,210,THRESHOLD_ATTACK,0.744955609362389,0.8328591606133977
187,class,61,210,210,RANDOM_FOREST,0.77322206095791,0.9259796806966619
188,class,61,210,210,K_NEAREST_NEIGHBORS,0.7503628447024674,0.8864296081277214
189,class,62,220,226,THRESHOLD_ATTACK,0.9292035398230089,0.9452131938857603
190,class,62,220,220,RANDOM_FOREST,0.8909090909090909,0.9684297520661157
191,class,62,220,220,K_NEAREST_NEIGHBORS,1.0,1.0
192,class,63,224,183,THRESHOLD_ATTACK,0.7714919984387197,0.8463358704137394
193,class,63,183,183,RANDOM_FOREST,0.782608695652174,0.9470699432892249
194,class,63,183,183,K_NEAREST_NEIGHBORS,0.7391304347826086,0.9220226843100188
195,class,64,139,139,THRESHOLD_ATTACK,0.8417266187050361,0.8857719579731897
196,class,64,139,139,RANDOM_FOREST,0.8,0.9461224489795919
197,class,64,139,139,K_NEAREST_NEIGHBORS,0.6857142857142857,0.8877551020408163
198,class,65,71,75,THRESHOLD_ATTACK,0.92,0.9496713615023474
199,class,65,71,71,RANDOM_FOREST,0.9444444444444444,0.9598765432098765
200,class,65,71,71,K_NEAREST_NEIGHBORS,0.9444444444444444,0.9660493827160495
201,class,66,318,332,THRESHOLD_ATTACK,0.8220239448359475,0.8994610517541866
202,class,66,318,318,RANDOM_FOREST,0.7875,0.9530063291139241
203,class,66,318,318,K_NEAREST_NEIGHBORS,0.8625,0.9593354430379747
204,class,67,169,180,THRESHOLD_ATTACK,0.8833333333333333,0.9226166995397764
205,class,67,169,169,RANDOM_FOREST,0.9302325581395349,0.9795127353266888
206,class,67,169,169,K_NEAREST_NEIGHBORS,0.9069767441860465,0.9753599114064229
207,class,68,272,312,THRESHOLD_ATTACK,0.815893665158371,0.8865655637254901
208,class,68,272,272,RANDOM_FOREST,0.8676470588235294,0.9457179930795847
209,class,68,272,272,K_NEAREST_NEIGHBORS,0.6911764705882354,0.8341262975778547
210,class,69,323,280,THRESHOLD_ATTACK,0.7509509066784609,0.8198971693940733
211,class,69,280,280,RANDOM_FOREST,0.7571428571428571,0.9205102040816326
212,class,69,280,280,K_NEAREST_NEIGHBORS,0.7000000000000001,0.9336734693877551
213,class,70,256,251,THRESHOLD_ATTACK,0.8247790089641435,0.884680029880478
214,class,70,251,251,RANDOM_FOREST,0.8888888888888888,0.928193499622071
215,class,70,251,251,K_NEAREST_NEIGHBORS,0.8571428571428571,0.9501133786848073
216,class,71,146,154,THRESHOLD_ATTACK,0.9285714285714286,0.9462284291051414
217,class,71,146,146,RANDOM_FOREST,0.9459459459459459,0.986111111111111
218,class,71,146,146,K_NEAREST_NEIGHBORS,0.8888888888888888,0.9474474474474474
219,class,72,238,218,THRESHOLD_ATTACK,0.8990825688073395,0.9332645902397657
220,class,72,218,218,RANDOM_FOREST,0.9259259259259259,0.9821548821548821
221,class,72,218,218,K_NEAREST_NEIGHBORS,0.8888888888888888,0.952861952861953
222,class,73,168,176,THRESHOLD_ATTACK,0.8633658008658008,0.9084990530303031
223,class,73,168,168,RANDOM_FOREST,0.8809523809523809,0.9543650793650793
224,class,73,168,168,K_NEAREST_NEIGHBORS,0.8333333333333334,0.9265873015873016
225,class,74,210,186,THRESHOLD_ATTACK,0.9301075268817204,0.9444700460829494
226,class,74,186,186,RANDOM_FOREST,0.9148936170212766,0.9752543940795559
227,class,74,186,186,K_NEAREST_NEIGHBORS,0.9130434782608695,0.9727104532839963
228,class,75,150,148,THRESHOLD_ATTACK,0.9193693693693694,0.9666666666666667
229,class,75,148,148,RANDOM_FOREST,0.918918918918919,0.9653031409788168
230,class,75,148,148,K_NEAREST_NEIGHBORS,0.8648648648648649,0.9521548575602629
231,class,76,248,263,THRESHOLD_ATTACK,0.8322396663804734,0.8756056052986629
232,class,76,248,248,RANDOM_FOREST,0.7741935483870968,0.8880072840790842
233,class,76,248,248,K_NEAREST_NEIGHBORS,0.8225806451612903,0.9426378772112383
234,class,77,176,168,THRESHOLD_ATTACK,0.8452380952380952,0.9089048971861473
235,class,77,168,168,RANDOM_FOREST,0.8809523809523809,0.9855442176870748
236,class,77,168,168,K_NEAREST_NEIGHBORS,0.7857142857142858,0.9141156462585034
237,class,78,135,122,THRESHOLD_ATTACK,0.8958105646630237,0.9491196114146934
238,class,78,122,122,RANDOM_FOREST,0.9032258064516129,0.9704301075268817
239,class,78,122,122,K_NEAREST_NEIGHBORS,0.8688172043010752,0.9602150537634409
240,class,79,189,207,THRESHOLD_ATTACK,0.8840579710144928,0.9294532627865961
241,class,79,189,189,RANDOM_FOREST,0.8302304964539007,0.9543439716312057
242,class,79,189,189,K_NEAREST_NEIGHBORS,0.8333333333333334,0.9485815602836879
243,class,80,239,222,THRESHOLD_ATTACK,0.8558558558558559,0.9199837913227035
244,class,80,222,222,RANDOM_FOREST,0.8392857142857143,0.9467532467532468
245,class,80,222,222,K_NEAREST_NEIGHBORS,0.75,0.9241883116883117
246,class,81,203,205,THRESHOLD_ATTACK,0.8292202330890304,0.8990868677159678
247,class,81,203,203,RANDOM_FOREST,0.9215686274509803,0.9692425990003845
248,class,81,203,203,K_NEAREST_NEIGHBORS,0.7647058823529411,0.9094579008073818
249,class,82,226,246,THRESHOLD_ATTACK,0.8207784732714584,0.8877437225699691
250,class,82,226,226,RANDOM_FOREST,0.7506265664160401,0.9335839598997494
251,class,82,226,226,K_NEAREST_NEIGHBORS,0.8035714285714286,0.9069548872180452
252,class,83,152,158,THRESHOLD_ATTACK,0.8984843437708195,0.9279230512991338
253,class,83,152,152,RANDOM_FOREST,0.8947368421052632,0.9449445983379501
254,class,83,152,152,K_NEAREST_NEIGHBORS,0.9473684210526315,0.9868421052631579
255,class,84,201,241,THRESHOLD_ATTACK,0.8713692946058091,0.915969942817035
256,class,84,201,201,RANDOM_FOREST,0.9,0.9566666666666667
257,class,84,201,201,K_NEAREST_NEIGHBORS,0.9019607843137255,0.9841176470588235
258,class,85,261,250,THRESHOLD_ATTACK,0.852,0.8989578544061302
259,class,85,250,250,RANDOM_FOREST,0.873015873015873,0.9651817716333846
260,class,85,250,250,K_NEAREST_NEIGHBORS,0.7777777777777778,0.9363799283154122
261,class,86,178,192,THRESHOLD_ATTACK,0.9270833333333334,0.9403236189138575
262,class,86,178,178,RANDOM_FOREST,0.9555555555555556,0.9904040404040404
263,class,86,178,178,K_NEAREST_NEIGHBORS,0.9777777777777777,0.9992424242424243
264,class,87,218,203,THRESHOLD_ATTACK,0.8771862430514756,0.9138269986893841
265,class,87,203,203,RANDOM_FOREST,0.8627450980392157,0.9667435601691657
266,class,87,203,203,K_NEAREST_NEIGHBORS,0.8235294117647058,0.9169550173010381
267,class,88,167,137,THRESHOLD_ATTACK,0.9562043795620438,0.9732724332357183
268,class,88,137,137,RANDOM_FOREST,0.9714285714285714,0.9773109243697479
269,class,88,137,137,K_NEAREST_NEIGHBORS,0.8529411764705882,0.9222689075630253
270,class,89,177,146,THRESHOLD_ATTACK,0.8859608389443542,0.9541831127621703
271,class,89,146,146,RANDOM_FOREST,0.8903903903903904,0.9793543543543544
272,class,89,146,146,K_NEAREST_NEIGHBORS,0.8648648648648649,0.9692192192192193
273,class,90,251,250,THRESHOLD_ATTACK,0.7680159362549801,0.8341832669322709
274,class,90,250,250,RANDOM_FOREST,0.746031746031746,0.9316436251920123
275,class,90,250,250,K_NEAREST_NEIGHBORS,0.8253968253968254,0.9572452636968767
276,class,91,117,115,THRESHOLD_ATTACK,0.9304347826086956,0.9573764399851357
277,class,91,115,115,RANDOM_FOREST,0.9655172413793104,0.9726516052318669
278,class,91,115,115,K_NEAREST_NEIGHBORS,0.8620689655172413,0.9637336504161713
279,class,92,189,182,THRESHOLD_ATTACK,0.8736263736263736,0.910866910866911
280,class,92,182,182,RANDOM_FOREST,0.9565217391304348,0.9828502415458937
281,class,92,182,182,K_NEAREST_NEIGHBORS,0.8260869565217391,0.9386473429951692
282,class,93,62,82,THRESHOLD_ATTACK,0.9512195121951219,0.9917387883556256
283,class,93,62,62,RANDOM_FOREST,1.0,1.0
284,class,93,62,62,K_NEAREST_NEIGHBORS,1.0,1.0
285,class,94,98,97,THRESHOLD_ATTACK,0.9587628865979382,0.9684409846412793
286,class,94,97,97,RANDOM_FOREST,0.9583333333333334,0.99
287,class,94,97,97,K_NEAREST_NEIGHBORS,0.9166666666666666,0.9675
288,class,95,105,101,THRESHOLD_ATTACK,0.9017444601603017,0.9521923620933522
289,class,95,101,101,RANDOM_FOREST,0.96,0.9753846153846154
290,class,95,101,101,K_NEAREST_NEIGHBORS,0.88,0.9507692307692308
291,class,96,122,130,THRESHOLD_ATTACK,0.9076923076923077,0.9379255989911728
292,class,96,122,122,RANDOM_FOREST,0.867741935483871,0.9510752688172043
293,class,96,122,122,K_NEAREST_NEIGHBORS,1.0,1.0
294,class,97,293,304,THRESHOLD_ATTACK,0.7993421052631579,0.8534612448356385
295,class,97,293,293,RANDOM_FOREST,0.7837837837837838,0.9394668641243984
296,class,97,293,293,K_NEAREST_NEIGHBORS,0.699000370233247,0.9179007774898185
297,class,98,238,279,THRESHOLD_ATTACK,0.8273395379657239,0.8759450016565766
298,class,98,238,238,RANDOM_FOREST,0.8135593220338984,0.9505649717514123
299,class,98,238,238,K_NEAREST_NEIGHBORS,0.7830508474576272,0.9228813559322033
300,class,99,241,200,THRESHOLD_ATTACK,0.881701244813278,0.9236618257261411
301,class,99,200,200,RANDOM_FOREST,0.9,0.9743999999999999
302,class,99,200,200,K_NEAREST_NEIGHBORS,0.86,0.939
303,correctly_classified,True,24665,17020,THRESHOLD_ATTACK,0.7291932101678354,0.8259876814651228
304,correctly_classified,True,17020,17020,RANDOM_FOREST,0.7346650998824912,0.9286525425952188
305,correctly_classified,True,17020,17020,K_NEAREST_NEIGHBORS,0.7034077555816687,0.9063879226899714
